<?xml version="1.0" encoding="utf-8"?>
<!-- Generator: Adobe Illustrator 15.1.0, SVG Export Plug-In . SVG Version: 6.00 Build 0)  -->
<!DOCTYPE svg PUBLIC "-//W3C//DTD SVG 1.1//EN" "http://www.w3.org/Graphics/SVG/1.1/DTD/svg11.dtd">
<svg version="1.1" id="white" xmlns="http://www.w3.org/2000/svg" xmlns:xlink="http://www.w3.org/1999/xlink" x="0px" y="0px"
	 width="79.969px" height="76.722px" viewBox="0 0 79.969 76.722" enable-background="new 0 0 79.969 76.722" xml:space="preserve">
<path fill="#FFFFFF" d="M78.83,18.407c-4.315,0.187-8.631,0.374-12.946,0.56c-0.627,0.028-1.203,0.521-1.185,1.185
	c0.082,3.134-0.028,6.228-0.312,9.341c-4.193,0.272-8.307,0.197-12.504-0.262c-0.646-0.07-1.184,0.604-1.191,1.192
	c-0.035,2.811,1.098,8.453-0.957,10.53c-1.947,1.966-9.259,1.014-11.932,0.734c-0.619-0.064-1.219,0.598-1.189,1.19
	c0.088,1.743,0.528,4.156,0.295,5.883c0.668,1.449,0.305,2.31-1.09,2.582c-0.891,0.656-1.898,0.923-3.021,0.804
	c-3.556,0.615-7.457,0.412-11.053,0.359c-0.581-0.009-1.254,0.55-1.179,1.178c0.479,3.943,0.968,7.884,1.455,11.826
	c-4.212,0.054-8.423,0.104-12.634,0.185c-0.586,0.012-1.108,0.494-1.099,1.098c0.056,3.204,0.036,6.399,0.556,9.564
	c0.081,0.491,0.9,0.486,0.985,0c0.492-2.803,0.557-5.631,0.627-8.471c4.286-0.013,8.572-0.052,12.856-0.087
	c0.569-0.004,1.228-0.527,1.153-1.153c-0.465-3.93-0.932-7.86-1.404-11.789c5.212,0.018,10.371-0.325,15.543-1.031
	c0.487-0.067,0.895-0.676,0.871-1.144c-0.14-2.837-0.279-5.674-0.419-8.511c4.441,0.323,8.694-0.14,13.004-1.411
	c0.511-0.151,0.871-0.62,0.877-1.153c0.041-3.297,0.081-6.594,0.121-9.891c4.152,0.385,8.238,0.427,12.416,0.092
	c0.693-0.056,1.116-0.503,1.188-1.188c0.326-3.117,0.458-6.21,0.418-9.334c3.916-0.172,7.833-0.344,11.749-0.515
	C80.344,20.703,80.353,18.341,78.83,18.407"/>
<path fill="#FFFFFF" d="M55.922,0.138c-3.833,1.976-7.438,4.193-10.928,6.727c-0.907,0.659-0.477,2.425,0.68,2.169
	c0.173,0.259,0.458,0.434,0.893,0.388c1.024-0.107,2.049-0.215,3.073-0.323C32.847,23.783,15.592,38.43,0.242,54.594
	c-0.733,0.772,0.359,1.824,1.152,1.154c17.27-14.586,33.49-30.488,50.416-45.491c0.136,1.28,0.271,2.56,0.406,3.84
	c0.126,1.198,1.921,1.655,2.248,0.304c1.049-4.321,2.097-8.643,3.146-12.965C57.854,0.434,56.814-0.322,55.922,0.138"/>
</svg>
